\relax 
\providecommand\hyper@newdestlabel[2]{}
\providecommand\HyperFirstAtBeginDocument{\AtBeginDocument}
\HyperFirstAtBeginDocument{\ifx\hyper@anchor\@undefined
\global\let\oldcontentsline\contentsline
\gdef\contentsline#1#2#3#4{\oldcontentsline{#1}{#2}{#3}}
\global\let\oldnewlabel\newlabel
\gdef\newlabel#1#2{\newlabelxx{#1}#2}
\gdef\newlabelxx#1#2#3#4#5#6{\oldnewlabel{#1}{{#2}{#3}}}
\AtEndDocument{\ifx\hyper@anchor\@undefined
\let\contentsline\oldcontentsline
\let\newlabel\oldnewlabel
\fi}
\fi}
\global\let\hyper@last\relax 
\gdef\HyperFirstAtBeginDocument#1{#1}
\providecommand\HyField@AuxAddToFields[1]{}
\providecommand\HyField@AuxAddToCoFields[2]{}
\@writefile{toc}{\contentsline {section}{\numberline {0.1}Bayesian Inference}{1}{section.0.1}}
\@writefile{toc}{\contentsline {subsection}{\numberline {0.1.1}Basic Idea}{1}{subsection.0.1.1}}
\@writefile{toc}{\contentsline {subsection}{\numberline {0.1.2}An Example: The Monty Hall Problem}{2}{subsection.0.1.2}}
\@writefile{toc}{\contentsline {section}{\numberline {0.2}Naive Bayes Classifiers}{3}{section.0.2}}
\@writefile{toc}{\contentsline {subsection}{\numberline {0.2.1}Basic Idea}{3}{subsection.0.2.1}}
\newlabel{eq:posterior}{{5}{3}{Basic Idea}{equation.0.2.5}{}}
\@writefile{toc}{\contentsline {subsection}{\numberline {0.2.2}Conditional Independence of the Features}{3}{subsection.0.2.2}}
\newlabel{eq:posterior2}{{6}{3}{Conditional Independence of the Features}{equation.0.2.6}{}}
\newlabel{eq:joint1}{{8}{4}{Conditional Independence of the Features}{equation.0.2.8}{}}
\newlabel{eq:joint2}{{9}{4}{Conditional Independence of the Features}{equation.0.2.9}{}}
\@writefile{toc}{\contentsline {subsection}{\numberline {0.2.3}The Decision Rule: Maximizing the Posterior Probability}{4}{subsection.0.2.3}}
\newlabel{eq:posterior3}{{10}{4}{The Decision Rule: Maximizing the Posterior Probability}{equation.0.2.10}{}}
\newlabel{eq:decision}{{11}{5}{The Decision Rule: Maximizing the Posterior Probability}{equation.0.2.11}{}}
\@writefile{toc}{\contentsline {subsection}{\numberline {0.2.4}Calculating the Priors the Likelihoods: Gaussian Naive Bayes}{5}{subsection.0.2.4}}
\newlabel{eq:likelihood}{{12}{5}{Calculating the Priors the Likelihoods: Gaussian Naive Bayes}{equation.0.2.12}{}}
\@writefile{toc}{\contentsline {subsection}{\numberline {0.2.5}Example}{5}{subsection.0.2.5}}
\newlabel{fig:training}{{0.2.5}{6}{Example}{subsection.0.2.5}{}}
\newlabel{fig:test_contour}{{0.2.5}{6}{Example}{subsection.0.2.5}{}}
\newlabel{fig:test_decision}{{0.2.5}{7}{Example}{subsection.0.2.5}{}}
